{
  "data": {
    "content": [
      {
        "objectId": "745250561711931392",
        "title": "关于全面加强刑事案件智能辅助办案系统应用的通知",
        "type": 3,
        "category": "政策规定",
        "publishTime": 1597723180000,
        "cover": "",
        "pdf": {
          "filename": "关于全面加强刑事案件智能辅助办案系统应用的通知.pdf",
          "attachmentId": "745250561837760512",
          "url": "/content/download?id=745250561837760512"
        },
        "attachments": [
          {
            "filename": "关于全面加强刑事案件智能辅助办案系统应用的通知.pdf",
            "attachmentId": "745250561959395328",
            "url": "/content/download?id=745250561959395328"
          }
        ]
      },
      {
        "objectId": "726843784846901248",
        "title": "关于启动社区矫正业务网上协调办理试运行的通知",
        "type": 3,
        "category": "政策规定",
        "publishTime": 1593334677000,
        "cover": "",
        "pdf": {
          "filename": "黔高法（信技）明传25号关于启动社区矫正业务网上协同办理试运行的通知(盖章版）.pdf",
          "attachmentId": "726843785455075328",
          "url": "/content/download?id=726843785455075328"
        },
        "attachments": []
      },
      {
        "objectId": "718053263148056576",
        "title": "黔高法（信技）明传（2020）18号（关于加强信息化宣传工作的通知)",
        "type": 3,
        "category": "政策规定",
        "publishTime": 1591238839000,
        "cover": "",
        "pdf": {
          "filename": "黔高法（信技）明传（2020）18号（关于加强信息化宣传工作的通知)（盖章扫描件）.pdf",
          "attachmentId": "718053263194193920",
          "url": "/content/download?id=718053263194193920"
        },
        "attachments": [
          {
            "filename": "黔高法（信技）明传（2020）18号（关于加强信息化宣传工作的通知)（盖章扫描件）.pdf",
            "attachmentId": "718053263215165440",
            "url": "/content/download?id=718053263215165440"
          }
        ]
      },
      {
        "objectId": "718053057476165632",
        "title": "关于转发最高法院《关于开展重要信息系统第三方测评的通知》的通知[黔高法（信计）明传（2020）9号]",
        "type": 3,
        "category": "政策规定",
        "publishTime": 1591238790000,
        "cover": "",
        "pdf": {
          "filename": "关于转发最高法院《关于开展重要信息系统第三方测评的通知》的通知[黔高法（信计）明传（2020）9号].pdf",
          "attachmentId": "718053057518108672",
          "url": "/content/download?id=718053057518108672"
        },
        "attachments": [
          {
            "filename": "附件：关于开展人民法院重要信息系统第三方测评的通知（法信办〔2020〕2号）.pdf",
            "attachmentId": "718053057547468800",
            "url": "/content/download?id=718053057547468800"
          }
        ]
      },
      {
        "objectId": "718052624410083328",
        "title": "20200603最高人民法院关于加快推进人民法院调解平台在线音视频调解工作的通知(法明传（2020）285号)",
        "type": 3,
        "category": "政策规定",
        "publishTime": 1591238686000,
        "cover": "",
        "pdf": {
          "filename": "20200603最高人民法院关于加快推进人民法院调解平台在线音视频调解工作的通知(法明传（2020）285号).pdf",
          "attachmentId": "718052624464609280",
          "url": "/content/download?id=718052624464609280"
        },
        "attachments": [
          {
            "filename": "20200603最高人民法院关于加快推进人民法院调解平台在线音视频调解工作的通知(法明传（2020）285号).pdf",
            "attachmentId": "718052624506552320",
            "url": "/content/download?id=718052624506552320"
          }
        ]
      }
    ],
    "pageable": {
      "sort": {
        "sorted": true,
        "unsorted": false,
        "empty": false
      },
      "pageNumber": 0,
      "offset": "0",
      "pageSize": 5,
      "unpaged": false,
      "paged": true
    },
    "totalElements": "18",
    "last": false,
    "totalPages": 4,
    "size": 5,
    "number": 0,
    "sort": {
      "sorted": true,
      "unsorted": false,
      "empty": false
    },
    "numberOfElements": 5,
    "first": true,
    "empty": false
  },
  "success": true
}
